<?xml version="1.0" encoding="UTF-8" standalone="no"?>
<!-- Generator: Adobe Illustrator 17.0.1, SVG Export Plug-In . SVG Version: 6.00 Build 0)  -->

<svg
   xmlns:dc="http://purl.org/dc/elements/1.1/"
   xmlns:cc="http://creativecommons.org/ns#"
   xmlns:rdf="http://www.w3.org/1999/02/22-rdf-syntax-ns#"
   xmlns:svg="http://www.w3.org/2000/svg"
   xmlns="http://www.w3.org/2000/svg"
   xmlns:sodipodi="http://sodipodi.sourceforge.net/DTD/sodipodi-0.dtd"
   xmlns:inkscape="http://www.inkscape.org/namespaces/inkscape"
   version="1.1"
   x="0px"
   y="0px"
   width="86px"
   height="86px"
   viewBox="0 0 86 86"
   enable-background="new 0 0 86 86"
   xml:space="preserve"
   id="svg21"
   sodipodi:docname="tilefish.svg"
   inkscape:version="0.92.4 5da689c313, 2019-01-14"><metadata
   id="metadata27"><rdf:RDF><cc:Work
       rdf:about=""><dc:format>image/svg+xml</dc:format><dc:type
         rdf:resource="http://purl.org/dc/dcmitype/StillImage" /><dc:title></dc:title></cc:Work></rdf:RDF></metadata><defs
   id="defs25"><inkscape:perspective
     sodipodi:type="inkscape:persp3d"
     inkscape:vp_x="0 : 43 : 1"
     inkscape:vp_y="0 : 1000 : 0"
     inkscape:vp_z="86 : 43 : 1"
     inkscape:persp3d-origin="43 : 28.666667 : 1"
     id="perspective837" /></defs><sodipodi:namedview
   pagecolor="#ffffff"
   bordercolor="#666666"
   borderopacity="1"
   objecttolerance="10"
   gridtolerance="10"
   guidetolerance="10"
   inkscape:pageopacity="0"
   inkscape:pageshadow="2"
   inkscape:window-width="640"
   inkscape:window-height="480"
   id="namedview23"
   showgrid="true"
   inkscape:zoom="15.918125"
   inkscape:cx="39.513773"
   inkscape:cy="42.114182"
   inkscape:current-layer="layer1"><inkscape:grid
     type="xygrid"
     id="grid871" /></sodipodi:namedview>
<g
   id="Layer_2"
   display="none">
</g>
<g
   id="Layer_1">
	<linearGradient
   id="SVGID_1_"
   gradientUnits="userSpaceOnUse"
   x1="0.7169"
   y1="85.2831"
   x2="85.2831"
   y2="0.7169">
		<stop
   offset="0"
   style="stop-color:#EB424A"
   id="stop3" />
		<stop
   offset="1"
   style="stop-color:#FF7500"
   id="stop5" />
	</linearGradient>
	
	<g
   id="g12">
		
	</g>
	
	
	
</g><g
   inkscape:groupmode="layer"
   id="layer2"
   inkscape:label="icon"
   style="display:inline"><path
     d="M 84.277,0.3 H 43 C 19.417,0.3 0.3,19.418 0.3,43 v 41.277 c 0,0.786 0.637,1.423 1.423,1.423 H 43 C 66.583,85.7 85.7,66.582 85.7,43 V 1.723 C 85.7,0.937 85.063,0.3 84.277,0.3 Z"
     id="path8"
     style="fill:#000000;fill-opacity:1"
     inkscape:connector-curvature="0" /></g><g
   inkscape:groupmode="layer"
   id="layer1"
   inkscape:label="fish"
   style="opacity:1"><g
     id="g918"
     transform="matrix(0.00600205,0,0,-0.00600205,6.8351584,51.434638)"
     style="fill:#00ffff;fill-opacity:1;stroke:none"><path
       id="path916"
       d="m 7715,7056 c -22,-7 -51,-19 -65,-26 -17,-9 -54,-13 -112,-12 -73,2 -95,-1 -129,-19 -34,-17 -52,-20 -92,-15 -53,8 -136,-13 -157,-40 -9,-10 -34,-14 -82,-14 -65,0 -72,-2 -99,-31 -32,-35 -74,-49 -141,-49 -41,0 -54,-5 -87,-35 -37,-33 -42,-35 -114,-35 -67,0 -79,-3 -108,-27 -23,-19 -48,-29 -90,-34 -42,-5 -70,-15 -101,-38 -37,-27 -50,-31 -107,-31 -52,-1 -74,-6 -106,-25 -27,-17 -55,-25 -84,-25 -39,0 -49,-5 -83,-42 -36,-39 -41,-41 -99,-44 -56,-2 -64,-5 -103,-42 -33,-32 -50,-41 -91,-45 -47,-5 -76,-24 -88,-60 -2,-8 -22,-11 -61,-9 -54,3 -58,2 -88,-32 -28,-32 -37,-36 -80,-36 -58,0 -104,-18 -137,-53 -15,-17 -39,-28 -67,-33 -26,-4 -59,-18 -80,-35 -27,-22 -48,-29 -79,-29 -36,0 -47,-6 -77,-39 -30,-32 -45,-39 -89,-45 -42,-6 -58,-14 -84,-42 -26,-28 -39,-34 -71,-34 -45,0 -84,-23 -84,-49 0,-31 -29,-46 -90,-46 -50,0 -65,-5 -105,-34 -37,-27 -61,-35 -111,-40 -46,-5 -70,-13 -88,-30 -19,-18 -30,-21 -60,-16 -31,6 -41,3 -71,-23 -35,-31 -89,-52 -134,-52 -16,0 -39,-16 -66,-45 l -42,-46 -66,3 c -60,2 -69,0 -95,-25 -25,-24 -35,-26 -88,-24 -69,2 -89,-9 -111,-60 -7,-18 -19,-33 -27,-33 -7,0 -18,-6 -24,-12 -14,-17 10,-73 36,-87 25,-13 62,-72 62,-98 0,-30 32,-54 354,-274 l 118,-81 -53,-23 c -170,-73 -213,-89 -303,-116 -274,-81 -809,-128 -1026,-89 -59,10 -82,20 -110,44 -89,79 -218,158 -305,186 -22,7 -58,22 -80,33 -22,11 -76,30 -120,43 -44,12 -134,38 -200,57 -379,111 -950,107 -1044,-7 -12,-14 -6,-16 52,-16 36,0 98,7 137,15 116,24 340,-2 340,-40 0,-6 18,-35 39,-64 22,-29 43,-67 47,-83 6,-28 52,-81 143,-161 17,-16 46,-57 63,-90 17,-34 43,-80 59,-102 16,-22 42,-82 58,-132 17,-51 37,-105 44,-120 8,-16 17,-57 21,-91 4,-35 12,-76 17,-90 19,-48 29,-134 34,-270 2,-73 6,-141 9,-150 3,-9 7,-72 11,-140 9,-198 -24,-301 -128,-406 -72,-71 -129,-110 -273,-186 -55,-29 -103,-55 -109,-60 -19,-14 -146,-52 -178,-53 -18,0 -69,10 -115,23 -86,25 -106,23 -78,-9 36,-40 148,-89 229,-100 292,-41 557,31 937,253 148,86 365,251 435,330 66,74 162,150 240,188 62,31 171,57 440,104 201,35 220,37 450,38 186,0 267,-4 360,-18 66,-10 143,-20 170,-21 62,-3 135,-23 135,-36 0,-5 -60,-38 -132,-73 -73,-35 -164,-79 -202,-98 -41,-20 -83,-50 -106,-76 -53,-60 -94,-178 -71,-206 9,-10 8,-25 -1,-60 -12,-44 -11,-47 13,-72 14,-14 43,-31 65,-39 22,-7 38,-19 37,-27 -1,-7 6,-24 16,-38 17,-21 28,-24 79,-25 48,0 65,-5 84,-22 31,-29 74,-44 104,-37 15,4 44,-2 76,-16 35,-15 66,-21 102,-19 35,2 62,-3 85,-15 33,-17 56,-17 123,-1 21,6 35,1 58,-19 38,-31 80,-34 124,-7 57,34 74,35 117,5 l 40,-28 50,18 c 50,18 50,18 65,-3 24,-34 47,-41 87,-29 31,9 39,8 62,-11 34,-26 55,-26 106,-1 l 40,21 31,-26 c 21,-18 39,-25 56,-22 14,3 26,-1 29,-8 2,-7 18,-19 33,-25 25,-10 34,-9 59,6 16,11 43,36 59,56 16,21 64,69 105,108 80,75 143,161 197,270 51,103 101,179 121,185 11,4 74,-5 142,-19 221,-46 340,-67 462,-82 167,-21 904,-31 1125,-15 91,6 237,14 325,16 191,6 241,11 313,36 134,46 372,85 372,62 0,-20 -76,-80 -136,-108 -139,-65 -145,-69 -140,-91 4,-16 -5,-26 -44,-50 -47,-28 -64,-58 -38,-66 15,-5 21,-203 8,-229 -6,-10 -5,-20 1,-26 8,-8 7,-13 0,-17 -6,-4 -11,-18 -11,-32 0,-14 -5,-35 -12,-47 -6,-12 -11,-37 -9,-55 1,-19 -5,-39 -14,-49 -9,-8 -15,-25 -14,-37 2,-11 -5,-35 -14,-53 -9,-18 -17,-50 -17,-72 0,-22 -4,-43 -10,-46 -5,-3 -10,-22 -10,-41 0,-19 5,-34 10,-34 12,0 13,-75 1,-98 -4,-9 -11,-34 -15,-55 -6,-32 -5,-38 10,-35 13,2 17,-5 18,-32 1,-19 -1,-45 -5,-57 -6,-15 -3,-23 6,-27 18,-7 10,-29 -39,-110 -20,-33 -34,-62 -31,-64 13,-13 133,89 256,218 218,229 342,411 412,605 46,129 104,269 145,355 41,84 82,213 102,321 l 11,57 77,6 c 106,9 226,34 281,58 60,26 186,64 275,83 162,34 279,75 390,136 133,74 234,144 339,237 68,59 86,71 147,86 125,33 375,191 540,341 25,23 68,50 95,60 28,10 68,26 90,35 22,10 61,20 87,23 69,7 113,43 121,100 4,26 0,62 -8,91 -16,52 -67,133 -97,154 -27,19 -12,33 30,27 20,-3 64,-7 97,-10 33,-2 86,-8 118,-11 51,-6 57,-5 58,12 3,39 -3,109 -12,131 -5,13 -13,65 -19,116 -16,142 -28,184 -86,297 -75,149 -101,222 -118,342 -9,57 -21,120 -28,139 -50,148 -262,236 -767,320 -191,31 -337,71 -520,140 -385,146 -522,192 -621,210 -30,6 -116,25 -190,44 -116,29 -369,86 -450,100 -72,14 -268,36 -360,41 -58,4 -112,10 -121,15 -9,5 -46,69 -83,143 -58,117 -72,139 -116,172 -28,21 -50,42 -50,46 0,16 -53,42 -103,49 -33,6 -70,21 -103,44 -51,36 -54,36 -121,30 -59,-6 -139,2 -198,21 -5,1 -28,-3 -50,-10 z"
       inkscape:connector-curvature="0"
       style="fill:#00ffff;fill-opacity:1" /></g><g
     style="fill:#ff00ff;fill-opacity:1;stroke:none"
     transform="matrix(-0.00600205,0,0,0.00600205,78.056949,35.968524)"
     id="g938"><path
       style="fill:#ff00ff;fill-opacity:1"
       inkscape:connector-curvature="0"
       d="m 7715,7056 c -22,-7 -51,-19 -65,-26 -17,-9 -54,-13 -112,-12 -73,2 -95,-1 -129,-19 -34,-17 -52,-20 -92,-15 -53,8 -136,-13 -157,-40 -9,-10 -34,-14 -82,-14 -65,0 -72,-2 -99,-31 -32,-35 -74,-49 -141,-49 -41,0 -54,-5 -87,-35 -37,-33 -42,-35 -114,-35 -67,0 -79,-3 -108,-27 -23,-19 -48,-29 -90,-34 -42,-5 -70,-15 -101,-38 -37,-27 -50,-31 -107,-31 -52,-1 -74,-6 -106,-25 -27,-17 -55,-25 -84,-25 -39,0 -49,-5 -83,-42 -36,-39 -41,-41 -99,-44 -56,-2 -64,-5 -103,-42 -33,-32 -50,-41 -91,-45 -47,-5 -76,-24 -88,-60 -2,-8 -22,-11 -61,-9 -54,3 -58,2 -88,-32 -28,-32 -37,-36 -80,-36 -58,0 -104,-18 -137,-53 -15,-17 -39,-28 -67,-33 -26,-4 -59,-18 -80,-35 -27,-22 -48,-29 -79,-29 -36,0 -47,-6 -77,-39 -30,-32 -45,-39 -89,-45 -42,-6 -58,-14 -84,-42 -26,-28 -39,-34 -71,-34 -45,0 -84,-23 -84,-49 0,-31 -29,-46 -90,-46 -50,0 -65,-5 -105,-34 -37,-27 -61,-35 -111,-40 -46,-5 -70,-13 -88,-30 -19,-18 -30,-21 -60,-16 -31,6 -41,3 -71,-23 -35,-31 -89,-52 -134,-52 -16,0 -39,-16 -66,-45 l -42,-46 -66,3 c -60,2 -69,0 -95,-25 -25,-24 -35,-26 -88,-24 -69,2 -89,-9 -111,-60 -7,-18 -19,-33 -27,-33 -7,0 -18,-6 -24,-12 -14,-17 10,-73 36,-87 25,-13 62,-72 62,-98 0,-30 32,-54 354,-274 l 118,-81 -53,-23 c -170,-73 -213,-89 -303,-116 -274,-81 -809,-128 -1026,-89 -59,10 -82,20 -110,44 -89,79 -218,158 -305,186 -22,7 -58,22 -80,33 -22,11 -76,30 -120,43 -44,12 -134,38 -200,57 -379,111 -950,107 -1044,-7 -12,-14 -6,-16 52,-16 36,0 98,7 137,15 116,24 340,-2 340,-40 0,-6 18,-35 39,-64 22,-29 43,-67 47,-83 6,-28 52,-81 143,-161 17,-16 46,-57 63,-90 17,-34 43,-80 59,-102 16,-22 42,-82 58,-132 17,-51 37,-105 44,-120 8,-16 17,-57 21,-91 4,-35 12,-76 17,-90 19,-48 29,-134 34,-270 2,-73 6,-141 9,-150 3,-9 7,-72 11,-140 9,-198 -24,-301 -128,-406 -72,-71 -129,-110 -273,-186 -55,-29 -103,-55 -109,-60 -19,-14 -146,-52 -178,-53 -18,0 -69,10 -115,23 -86,25 -106,23 -78,-9 36,-40 148,-89 229,-100 292,-41 557,31 937,253 148,86 365,251 435,330 66,74 162,150 240,188 62,31 171,57 440,104 201,35 220,37 450,38 186,0 267,-4 360,-18 66,-10 143,-20 170,-21 62,-3 135,-23 135,-36 0,-5 -60,-38 -132,-73 -73,-35 -164,-79 -202,-98 -41,-20 -83,-50 -106,-76 -53,-60 -94,-178 -71,-206 9,-10 8,-25 -1,-60 -12,-44 -11,-47 13,-72 14,-14 43,-31 65,-39 22,-7 38,-19 37,-27 -1,-7 6,-24 16,-38 17,-21 28,-24 79,-25 48,0 65,-5 84,-22 31,-29 74,-44 104,-37 15,4 44,-2 76,-16 35,-15 66,-21 102,-19 35,2 62,-3 85,-15 33,-17 56,-17 123,-1 21,6 35,1 58,-19 38,-31 80,-34 124,-7 57,34 74,35 117,5 l 40,-28 50,18 c 50,18 50,18 65,-3 24,-34 47,-41 87,-29 31,9 39,8 62,-11 34,-26 55,-26 106,-1 l 40,21 31,-26 c 21,-18 39,-25 56,-22 14,3 26,-1 29,-8 2,-7 18,-19 33,-25 25,-10 34,-9 59,6 16,11 43,36 59,56 16,21 64,69 105,108 80,75 143,161 197,270 51,103 101,179 121,185 11,4 74,-5 142,-19 221,-46 340,-67 462,-82 167,-21 904,-31 1125,-15 91,6 237,14 325,16 191,6 241,11 313,36 134,46 372,85 372,62 0,-20 -76,-80 -136,-108 -139,-65 -145,-69 -140,-91 4,-16 -5,-26 -44,-50 -47,-28 -64,-58 -38,-66 15,-5 21,-203 8,-229 -6,-10 -5,-20 1,-26 8,-8 7,-13 0,-17 -6,-4 -11,-18 -11,-32 0,-14 -5,-35 -12,-47 -6,-12 -11,-37 -9,-55 1,-19 -5,-39 -14,-49 -9,-8 -15,-25 -14,-37 2,-11 -5,-35 -14,-53 -9,-18 -17,-50 -17,-72 0,-22 -4,-43 -10,-46 -5,-3 -10,-22 -10,-41 0,-19 5,-34 10,-34 12,0 13,-75 1,-98 -4,-9 -11,-34 -15,-55 -6,-32 -5,-38 10,-35 13,2 17,-5 18,-32 1,-19 -1,-45 -5,-57 -6,-15 -3,-23 6,-27 18,-7 10,-29 -39,-110 -20,-33 -34,-62 -31,-64 13,-13 133,89 256,218 218,229 342,411 412,605 46,129 104,269 145,355 41,84 82,213 102,321 l 11,57 77,6 c 106,9 226,34 281,58 60,26 186,64 275,83 162,34 279,75 390,136 133,74 234,144 339,237 68,59 86,71 147,86 125,33 375,191 540,341 25,23 68,50 95,60 28,10 68,26 90,35 22,10 61,20 87,23 69,7 113,43 121,100 4,26 0,62 -8,91 -16,52 -67,133 -97,154 -27,19 -12,33 30,27 20,-3 64,-7 97,-10 33,-2 86,-8 118,-11 51,-6 57,-5 58,12 3,39 -3,109 -12,131 -5,13 -13,65 -19,116 -16,142 -28,184 -86,297 -75,149 -101,222 -118,342 -9,57 -21,120 -28,139 -50,148 -262,236 -767,320 -191,31 -337,71 -520,140 -385,146 -522,192 -621,210 -30,6 -116,25 -190,44 -116,29 -369,86 -450,100 -72,14 -268,36 -360,41 -58,4 -112,10 -121,15 -9,5 -46,69 -83,143 -58,117 -72,139 -116,172 -28,21 -50,42 -50,46 0,16 -53,42 -103,49 -33,6 -70,21 -103,44 -51,36 -54,36 -121,30 -59,-6 -139,2 -198,21 -5,1 -28,-3 -50,-10 z"
       id="path936" /></g></g><g
   inkscape:groupmode="layer"
   id="layer3"
   inkscape:label="grid"><rect
     style="fill:#ffffff;fill-opacity:1;stroke:none;stroke-width:5.51375294;stroke-miterlimit:4;stroke-dasharray:none;stroke-opacity:1"
     id="rect869"
     width="0.91322315"
     height="84"
     x="42.087811"
     y="1" /><rect
     y="42.954544"
     x="1"
     height="1.090909"
     width="84"
     id="rect882"
     style="fill:#ffffff;fill-opacity:1;stroke:none;stroke-width:6.02633286;stroke-miterlimit:4;stroke-dasharray:none;stroke-opacity:1" /></g>
</svg>